{
    "/i18n/installer-en.js": "/i18n/installer-en.js",
    "/i18n/installer-en.js.map": "/i18n/installer-en.js.map",
    "/js/install/app.js": "/js/install/app.js",
    "/css/install/app.css": "/css/install/app.css",
    "/js/install/app.js.map": "/js/install/app.js.map"
}
