{
    "0": "Animals",
    "1": "Art",
    "2": "Astronomy and Space",
    "3": "Biology",
    "4": "Books",
    "5": "Computers and Programming",
    "6": "Design",
    "7": "Dictionary",
    "8": "Education",
    "9": "Entertainment",
    "10": "Enviroment",
    "11": "Fansite",
    "12": "Farming",
    "13": "Fashion",
    "14": "Finance",
    "15": "Food and Drink",
    "16": "Gambling",
    "17": "Gaming",
    "18": "Gardening",
    "19": "Health",
    "20": "Home and Decor",
    "21": "Kids",
    "22": "Lifestyle",
    "23": "Medicine",
    "24": "Movies",
    "25": "Music",
    "26": "News",
    "27": "Pictures",
    "28": "Politics",
    "29": "Product Review",
    "30": "Q&A",
    "31": "Real Estate",
    "32": "Recipes",
    "33": "Relationships",
    "34": "Religion",
    "35": "Shopping",
    "36": "Society",
    "37": "Television",
    "38": "Theater",
    "39": "Torrent",
    "40": "Travel",
    "41": "Wedding",
    "42": "Wiki"
}
